// Jest Snapshot v1, https://goo.gl/fbAQLP

exports[`Unit test for the Select component. Should match snapshot - async. 1`] = `
<div>
  <div
    class=" css-l45kjq-container"
  >
    <span
      class="css-1f43avz-a11yText-A11yText"
      id="react-select-3-live-region"
    />
    <span
      aria-atomic="false"
      aria-live="polite"
      aria-relevant="additions text"
      class="css-1f43avz-a11yText-A11yText"
    />
    <div
      class="react-select__control css-19jej77-control"
    >
      <div
        class="react-select__value-container css-3tzzl5-ValueContainer"
      >
        <div
          class="react-select__placeholder css-19jynah-placeholder"
          id="react-select-3-placeholder"
        >
          test
        </div>
        <div
          class="react-select__input-container css-6j8wv5-Input"
          data-value=""
        >
          <input
            aria-autocomplete="list"
            aria-describedby="react-select-3-placeholder"
            aria-expanded="false"
            aria-haspopup="true"
            autocapitalize="none"
            autocomplete="off"
            autocorrect="off"
            class="react-select__input"
            id="async-select-id-undefined"
            role="combobox"
            spellcheck="false"
            style="opacity: 1; width: 100%; grid-area: 1 / 2; min-width: 2px; border: 0px; margin: 0px; outline: 0; padding: 0px;"
            tabindex="0"
            type="text"
            value=""
          />
        </div>
      </div>
      <div
        class="react-select__indicators css-1hb7zxy-IndicatorsContainer"
      >
        <span
          class="react-select__indicator-separator css-1979yuk-indicatorSeparator"
        />
        <div
          aria-hidden="true"
          class="react-select__indicator react-select__dropdown-indicator css-1hmmjq6-indicatorContainer"
        >
          <svg
            aria-hidden="true"
            class="css-tj5bde-Svg"
            focusable="false"
            height="20"
            viewBox="0 0 20 20"
            width="20"
          >
            <path
              d="M4.516 7.548c0.436-0.446 1.043-0.481 1.576 0l3.908 3.747 3.908-3.747c0.533-0.481 1.141-0.446 1.574 0 0.436 0.445 0.408 1.197 0 1.615-0.406 0.418-4.695 4.502-4.695 4.502-0.217 0.223-0.502 0.335-0.787 0.335s-0.57-0.112-0.789-0.335c0 0-4.287-4.084-4.695-4.502s-0.436-1.17 0-1.615z"
            />
          </svg>
        </div>
      </div>
    </div>
  </div>
</div>
`;

exports[`Unit test for the Select component. Should match snapshot - search async. 1`] = `
<div>
  <div
    class=" css-l45kjq-container"
  >
    <span
      class="css-1f43avz-a11yText-A11yText"
      id="react-select-5-live-region"
    />
    <span
      aria-atomic="false"
      aria-live="polite"
      aria-relevant="additions text"
      class="css-1f43avz-a11yText-A11yText"
    />
    <div
      class="react-select__control css-19jej77-control"
    >
      <div
        class="react-select__value-container css-3tzzl5-ValueContainer"
      >
        <div
          class="react-select__placeholder css-19jynah-placeholder"
          id="react-select-5-placeholder"
        >
          test
        </div>
        <div
          class="react-select__input-container css-6j8wv5-Input"
          data-value=""
        >
          <input
            aria-autocomplete="list"
            aria-describedby="react-select-5-placeholder"
            aria-expanded="false"
            aria-haspopup="true"
            autocapitalize="none"
            autocomplete="off"
            autocorrect="off"
            class="react-select__input"
            id="async-select-id-undefined"
            role="combobox"
            spellcheck="false"
            style="opacity: 1; width: 100%; grid-area: 1 / 2; min-width: 2px; border: 0px; margin: 0px; outline: 0; padding: 0px;"
            tabindex="0"
            type="text"
            value=""
          />
        </div>
      </div>
      <div
        class="react-select__indicators css-1hb7zxy-IndicatorsContainer"
      >
        <span
          class="react-select__indicator-separator css-1979yuk-indicatorSeparator"
        />
        <div
          aria-hidden="true"
          class="react-select__indicator react-select__dropdown-indicator css-1hmmjq6-indicatorContainer"
        >
          <svg
            class="text-2xl"
            fill="none"
            height="1em"
            stroke="currentColor"
            stroke-width="0"
            viewBox="0 0 24 24"
            width="1em"
            xmlns="http://www.w3.org/2000/svg"
          >
            <path
              d="M21 21l-6-6m2-5a7 7 0 11-14 0 7 7 0 0114 0z"
              stroke-linecap="round"
              stroke-linejoin="round"
              stroke-width="2"
            />
          </svg>
        </div>
      </div>
    </div>
  </div>
</div>
`;

exports[`Unit test for the Select component. Should match snapshot - search. 1`] = `
<div>
  <div
    class=" css-l45kjq-container"
  >
    <span
      class="css-1f43avz-a11yText-A11yText"
      id="react-select-4-live-region"
    />
    <span
      aria-atomic="false"
      aria-live="polite"
      aria-relevant="additions text"
      class="css-1f43avz-a11yText-A11yText"
    />
    <div
      class="react-select__control css-19jej77-control"
    >
      <div
        class="react-select__value-container css-3tzzl5-ValueContainer"
      >
        <div
          class="react-select__placeholder css-19jynah-placeholder"
          id="react-select-4-placeholder"
        >
          test
        </div>
        <div
          class="react-select__input-container css-6j8wv5-Input"
          data-value=""
        >
          <input
            aria-autocomplete="list"
            aria-describedby="react-select-4-placeholder"
            aria-expanded="false"
            aria-haspopup="true"
            autocapitalize="none"
            autocomplete="off"
            autocorrect="off"
            class="react-select__input"
            id="react-select-id-undefined"
            role="combobox"
            spellcheck="false"
            style="opacity: 1; width: 100%; grid-area: 1 / 2; min-width: 2px; border: 0px; margin: 0px; outline: 0; padding: 0px;"
            tabindex="0"
            type="text"
            value=""
          />
        </div>
      </div>
      <div
        class="react-select__indicators css-1hb7zxy-IndicatorsContainer"
      >
        <span
          class="react-select__indicator-separator css-1979yuk-indicatorSeparator"
        />
        <div
          aria-hidden="true"
          class="react-select__indicator react-select__dropdown-indicator css-1hmmjq6-indicatorContainer"
        >
          <svg
            class="text-2xl"
            fill="none"
            height="1em"
            stroke="currentColor"
            stroke-width="0"
            viewBox="0 0 24 24"
            width="1em"
            xmlns="http://www.w3.org/2000/svg"
          >
            <path
              d="M21 21l-6-6m2-5a7 7 0 11-14 0 7 7 0 0114 0z"
              stroke-linecap="round"
              stroke-linejoin="round"
              stroke-width="2"
            />
          </svg>
        </div>
      </div>
    </div>
  </div>
</div>
`;

exports[`Unit test for the Select component. Should match snapshot. 1`] = `
<div>
  <div
    class=" css-l45kjq-container"
  >
    <span
      class="css-1f43avz-a11yText-A11yText"
      id="react-select-2-live-region"
    />
    <span
      aria-atomic="false"
      aria-live="polite"
      aria-relevant="additions text"
      class="css-1f43avz-a11yText-A11yText"
    />
    <div
      class="react-select__control css-19jej77-control"
    >
      <div
        class="react-select__value-container css-3tzzl5-ValueContainer"
      >
        <div
          class="react-select__placeholder css-19jynah-placeholder"
          id="react-select-2-placeholder"
        >
          test
        </div>
        <div
          class="react-select__input-container css-6j8wv5-Input"
          data-value=""
        >
          <input
            aria-autocomplete="list"
            aria-describedby="react-select-2-placeholder"
            aria-expanded="false"
            aria-haspopup="true"
            autocapitalize="none"
            autocomplete="off"
            autocorrect="off"
            class="react-select__input"
            id="react-select-id-undefined"
            role="combobox"
            spellcheck="false"
            style="opacity: 1; width: 100%; grid-area: 1 / 2; min-width: 2px; border: 0px; margin: 0px; outline: 0; padding: 0px;"
            tabindex="0"
            type="text"
            value=""
          />
        </div>
      </div>
      <div
        class="react-select__indicators css-1hb7zxy-IndicatorsContainer"
      >
        <span
          class="react-select__indicator-separator css-1979yuk-indicatorSeparator"
        />
        <div
          aria-hidden="true"
          class="react-select__indicator react-select__dropdown-indicator css-1hmmjq6-indicatorContainer"
        >
          <svg
            aria-hidden="true"
            class="css-tj5bde-Svg"
            focusable="false"
            height="20"
            viewBox="0 0 20 20"
            width="20"
          >
            <path
              d="M4.516 7.548c0.436-0.446 1.043-0.481 1.576 0l3.908 3.747 3.908-3.747c0.533-0.481 1.141-0.446 1.574 0 0.436 0.445 0.408 1.197 0 1.615-0.406 0.418-4.695 4.502-4.695 4.502-0.217 0.223-0.502 0.335-0.787 0.335s-0.57-0.112-0.789-0.335c0 0-4.287-4.084-4.695-4.502s-0.436-1.17 0-1.615z"
            />
          </svg>
        </div>
      </div>
    </div>
  </div>
</div>
`;
