// Jest Snapshot v1, https://goo.gl/fbAQLP

exports[`Unit tests for playbook list interaction. Should render error message when apollo returning error. 1`] = `
{
  "asFragment": [Function],
  "baseElement": <body>
    <div>
      <div
        class="Toastify"
      />
      <div
        class="text-button-gray text-lg"
        style="margin-top: 10%;"
      >
        <svg
          class="w-full mb-5"
          fill="currentColor"
          height="3em"
          stroke="currentColor"
          stroke-width="0"
          viewBox="0 0 512 512"
          width="3em"
          xmlns="http://www.w3.org/2000/svg"
        >
          <path
            d="M504 256c0 136.997-111.043 248-248 248S8 392.997 8 256C8 119.083 119.043 8 256 8s248 111.083 248 248zm-248 50c-25.405 0-46 20.595-46 46s20.595 46 46 46 46-20.595 46-46-20.595-46-46-46zm-43.673-165.346l7.418 136c.347 6.364 5.609 11.346 11.982 11.346h48.546c6.373 0 11.635-4.982 11.982-11.346l7.418-136c.375-6.874-5.098-12.654-11.982-12.654h-63.383c-6.884 0-12.356 5.78-11.981 12.654z"
          />
        </svg>
        <div
          class="text-center mt-5"
        >
          Error fetching data. Please check your network connection.
        </div>
      </div>
    </div>
  </body>,
  "container": <div>
    <div
      class="Toastify"
    />
    <div
      class="text-button-gray text-lg"
      style="margin-top: 10%;"
    >
      <svg
        class="w-full mb-5"
        fill="currentColor"
        height="3em"
        stroke="currentColor"
        stroke-width="0"
        viewBox="0 0 512 512"
        width="3em"
        xmlns="http://www.w3.org/2000/svg"
      >
        <path
          d="M504 256c0 136.997-111.043 248-248 248S8 392.997 8 256C8 119.083 119.043 8 256 8s248 111.083 248 248zm-248 50c-25.405 0-46 20.595-46 46s20.595 46 46 46 46-20.595 46-46-20.595-46-46-46zm-43.673-165.346l7.418 136c.347 6.364 5.609 11.346 11.982 11.346h48.546c6.373 0 11.635-4.982 11.982-11.346l7.418-136c.375-6.874-5.098-12.654-11.982-12.654h-63.383c-6.884 0-12.356 5.78-11.981 12.654z"
        />
      </svg>
      <div
        class="text-center mt-5"
      >
        Error fetching data. Please check your network connection.
      </div>
    </div>
  </div>,
  "debug": [Function],
  "findAllByAltText": [Function],
  "findAllByDisplayValue": [Function],
  "findAllByLabelText": [Function],
  "findAllByPlaceholderText": [Function],
  "findAllByRole": [Function],
  "findAllByTestId": [Function],
  "findAllByText": [Function],
  "findAllByTitle": [Function],
  "findByAltText": [Function],
  "findByDisplayValue": [Function],
  "findByLabelText": [Function],
  "findByPlaceholderText": [Function],
  "findByRole": [Function],
  "findByTestId": [Function],
  "findByText": [Function],
  "findByTitle": [Function],
  "getAllByAltText": [Function],
  "getAllByDisplayValue": [Function],
  "getAllByLabelText": [Function],
  "getAllByPlaceholderText": [Function],
  "getAllByRole": [Function],
  "getAllByTestId": [Function],
  "getAllByText": [Function],
  "getAllByTitle": [Function],
  "getByAltText": [Function],
  "getByDisplayValue": [Function],
  "getByLabelText": [Function],
  "getByPlaceholderText": [Function],
  "getByRole": [Function],
  "getByTestId": [Function],
  "getByText": [Function],
  "getByTitle": [Function],
  "queryAllByAltText": [Function],
  "queryAllByDisplayValue": [Function],
  "queryAllByLabelText": [Function],
  "queryAllByPlaceholderText": [Function],
  "queryAllByRole": [Function],
  "queryAllByTestId": [Function],
  "queryAllByText": [Function],
  "queryAllByTitle": [Function],
  "queryByAltText": [Function],
  "queryByDisplayValue": [Function],
  "queryByLabelText": [Function],
  "queryByPlaceholderText": [Function],
  "queryByRole": [Function],
  "queryByTestId": [Function],
  "queryByText": [Function],
  "queryByTitle": [Function],
  "rerender": [Function],
  "unmount": [Function],
}
`;

exports[`Unit tests for playbook list interaction. Should render list of playbooks. 1`] = `
{
  "asFragment": [Function],
  "baseElement": <body>
    <div>
      <div
        class="Toastify"
      />
      <div
        class="infinite-scroll-component__outerdiv"
      >
        <div
          class="infinite-scroll-component relative px-2 mt-3 pb-8 max-w-catalog mx-auto infinite-scroll-default-height"
          style="height: auto; overflow: auto;"
        >
          <div
            class="grid grid-cols-1 gap-4
       md:grid-cols-1 lg:grid-cols-2 xl:grid-cols-3"
          >
            <div
              class="group 
  border-3 cursor-pointer
  border-transparent hover:border-dial-yellow
"
            >
              <div
                class="border border-dial-gray hover:border-transparent card-drop-shadow h-full"
              >
                <div
                  class="flex flex-col h-full"
                >
                  <div
                    class="flex flex-col p-4 group-hover:text-dial-yellow"
                  >
                    <div
                      class="text-2xl font-semibold absolute w-64 2xl:w-80"
                    >
                      CDR Analytics for COVID-19 with FlowKit
                    </div>
                    <div
                      class="mx-auto mt-5 pt-20 w-40 h-60 relative"
                    >
                      <span
                        style="box-sizing: border-box; display: block; overflow: hidden; background: none; opacity: 1; border: 0px; margin: 0px; padding: 0px; position: absolute; top: 0px; left: 0px; bottom: 0px; right: 0px;"
                      >
                        <img
                          alt="Logo for: CDR Analytics for COVID-19 with FlowKit"
                          data-nimg="fill"
                          decoding="async"
                          src="data:image/gif;base64,R0lGODlhAQABAIAAAAAAAP///yH5BAEAAAAALAAAAAABAAEAAAIBRAA7"
                          style="position: absolute; top: 0px; left: 0px; bottom: 0px; right: 0px; box-sizing: border-box; padding: 0px; margin: auto; display: block; width: 0px; height: 0px; min-width: 100%; max-width: 100%; min-height: 100%; max-height: 100%; object-fit: contain;"
                        />
                        <noscript />
                      </span>
                    </div>
                  </div>
                  <div
                    class="bg-dial-gray-light flex flex-col h-full"
                  >
                    <div
                      class="px-3 py-3 text-sm"
                    >
                      <div
                        class="max-h-16 playbook-description overflow-hidden"
                      >
                        Overview of CDR Analytics for COVID-19 with FlowKit.
                      </div>
                    </div>
                    <div
                      class="flex flex-col bg-dial-gray-light px-3 py-3 text-sm gap-1"
                    >
                      <div
                        class="font-semibold"
                      >
                        Tags
                      </div>
                      <div
                        class="flex flex-row gap-1"
                      >
                        <div
                          class="bg-white px-2 py-1.5 rounded"
                        >
                          COVID-19
                        </div>
                        <div
                          class="bg-white px-2 py-1.5 rounded"
                        >
                          Chip cards
                        </div>
                      </div>
                    </div>
                  </div>
                </div>
              </div>
            </div>
            <div
              class="group 
  border-3 cursor-pointer
  border-transparent hover:border-dial-yellow
"
            >
              <div
                class="border border-dial-gray hover:border-transparent card-drop-shadow h-full"
              >
                <div
                  class="flex flex-col h-full"
                >
                  <div
                    class="flex flex-col p-4 group-hover:text-dial-yellow"
                  >
                    <div
                      class="text-2xl font-semibold absolute w-64 2xl:w-80"
                    >
                      D4D Diagnostic Toolkit
                    </div>
                    <div
                      class="mx-auto mt-5 pt-20 w-40 h-60 relative"
                    >
                      <span
                        style="box-sizing: border-box; display: block; overflow: hidden; background: none; opacity: 1; border: 0px; margin: 0px; padding: 0px; position: absolute; top: 0px; left: 0px; bottom: 0px; right: 0px;"
                      >
                        <img
                          alt="Logo for: D4D Diagnostic Toolkit"
                          data-nimg="fill"
                          decoding="async"
                          src="data:image/gif;base64,R0lGODlhAQABAIAAAAAAAP///yH5BAEAAAAALAAAAAABAAEAAAIBRAA7"
                          style="position: absolute; top: 0px; left: 0px; bottom: 0px; right: 0px; box-sizing: border-box; padding: 0px; margin: auto; display: block; width: 0px; height: 0px; min-width: 100%; max-width: 100%; min-height: 100%; max-height: 100%; object-fit: contain;"
                        />
                        <noscript />
                      </span>
                    </div>
                  </div>
                  <div
                    class="bg-dial-gray-light flex flex-col h-full"
                  >
                    <div
                      class="px-3 py-3 text-sm"
                    >
                      <div
                        class="max-h-16 playbook-description overflow-hidden"
                      >
                        D4D Diagnostic Toolkit
                      </div>
                    </div>
                    <div
                      class="flex flex-col bg-dial-gray-light px-3 py-3 text-sm gap-1"
                    >
                      <div
                        class="font-semibold"
                      >
                        Tags
                      </div>
                      <div
                        class="flex flex-row gap-1"
                      >
                        <div
                          class="bg-white px-2 py-1.5 rounded"
                        >
                          SMS services
                        </div>
                        <div
                          class="bg-white px-2 py-1.5 rounded"
                        >
                          Artificial Intelligence
                        </div>
                      </div>
                    </div>
                  </div>
                </div>
              </div>
            </div>
            <div
              class="group 
  border-3 cursor-pointer
  border-transparent hover:border-dial-yellow
"
            >
              <div
                class="border border-dial-gray hover:border-transparent card-drop-shadow h-full"
              >
                <div
                  class="flex flex-col h-full"
                >
                  <div
                    class="flex flex-col p-4 group-hover:text-dial-yellow"
                  >
                    <div
                      class="text-2xl font-semibold absolute w-64 2xl:w-80"
                    >
                      Example Playbook
                    </div>
                    <div
                      class="mx-auto mt-5 pt-20 w-40 h-60 relative"
                    >
                      <span
                        style="box-sizing: border-box; display: block; overflow: hidden; background: none; opacity: 1; border: 0px; margin: 0px; padding: 0px; position: absolute; top: 0px; left: 0px; bottom: 0px; right: 0px;"
                      >
                        <img
                          alt="Logo for: Example Playbook"
                          data-nimg="fill"
                          decoding="async"
                          src="data:image/gif;base64,R0lGODlhAQABAIAAAAAAAP///yH5BAEAAAAALAAAAAABAAEAAAIBRAA7"
                          style="position: absolute; top: 0px; left: 0px; bottom: 0px; right: 0px; box-sizing: border-box; padding: 0px; margin: auto; display: block; width: 0px; height: 0px; min-width: 100%; max-width: 100%; min-height: 100%; max-height: 100%; object-fit: contain;"
                        />
                        <noscript />
                      </span>
                    </div>
                  </div>
                  <div
                    class="bg-dial-gray-light flex flex-col h-full"
                  >
                    <div
                      class="px-3 py-3 text-sm"
                    >
                      <div
                        class="max-h-16 playbook-description overflow-hidden"
                      >
                        Just an example of playbook.
                      </div>
                    </div>
                    <div
                      class="flex flex-col bg-dial-gray-light px-3 py-3 text-sm gap-1"
                    >
                      <div
                        class="font-semibold"
                      >
                        Tags
                      </div>
                      <div
                        class="flex flex-row gap-1"
                      >
                        <div
                          class="bg-white px-2 py-1.5 rounded"
                        >
                          3D Printers
                        </div>
                        <div
                          class="bg-white px-2 py-1.5 rounded"
                        >
                          Apps
                        </div>
                      </div>
                    </div>
                  </div>
                </div>
              </div>
            </div>
          </div>
        </div>
      </div>
    </div>
  </body>,
  "container": <div>
    <div
      class="Toastify"
    />
    <div
      class="infinite-scroll-component__outerdiv"
    >
      <div
        class="infinite-scroll-component relative px-2 mt-3 pb-8 max-w-catalog mx-auto infinite-scroll-default-height"
        style="height: auto; overflow: auto;"
      >
        <div
          class="grid grid-cols-1 gap-4
       md:grid-cols-1 lg:grid-cols-2 xl:grid-cols-3"
        >
          <div
            class="group 
  border-3 cursor-pointer
  border-transparent hover:border-dial-yellow
"
          >
            <div
              class="border border-dial-gray hover:border-transparent card-drop-shadow h-full"
            >
              <div
                class="flex flex-col h-full"
              >
                <div
                  class="flex flex-col p-4 group-hover:text-dial-yellow"
                >
                  <div
                    class="text-2xl font-semibold absolute w-64 2xl:w-80"
                  >
                    CDR Analytics for COVID-19 with FlowKit
                  </div>
                  <div
                    class="mx-auto mt-5 pt-20 w-40 h-60 relative"
                  >
                    <span
                      style="box-sizing: border-box; display: block; overflow: hidden; background: none; opacity: 1; border: 0px; margin: 0px; padding: 0px; position: absolute; top: 0px; left: 0px; bottom: 0px; right: 0px;"
                    >
                      <img
                        alt="Logo for: CDR Analytics for COVID-19 with FlowKit"
                        data-nimg="fill"
                        decoding="async"
                        src="data:image/gif;base64,R0lGODlhAQABAIAAAAAAAP///yH5BAEAAAAALAAAAAABAAEAAAIBRAA7"
                        style="position: absolute; top: 0px; left: 0px; bottom: 0px; right: 0px; box-sizing: border-box; padding: 0px; margin: auto; display: block; width: 0px; height: 0px; min-width: 100%; max-width: 100%; min-height: 100%; max-height: 100%; object-fit: contain;"
                      />
                      <noscript />
                    </span>
                  </div>
                </div>
                <div
                  class="bg-dial-gray-light flex flex-col h-full"
                >
                  <div
                    class="px-3 py-3 text-sm"
                  >
                    <div
                      class="max-h-16 playbook-description overflow-hidden"
                    >
                      Overview of CDR Analytics for COVID-19 with FlowKit.
                    </div>
                  </div>
                  <div
                    class="flex flex-col bg-dial-gray-light px-3 py-3 text-sm gap-1"
                  >
                    <div
                      class="font-semibold"
                    >
                      Tags
                    </div>
                    <div
                      class="flex flex-row gap-1"
                    >
                      <div
                        class="bg-white px-2 py-1.5 rounded"
                      >
                        COVID-19
                      </div>
                      <div
                        class="bg-white px-2 py-1.5 rounded"
                      >
                        Chip cards
                      </div>
                    </div>
                  </div>
                </div>
              </div>
            </div>
          </div>
          <div
            class="group 
  border-3 cursor-pointer
  border-transparent hover:border-dial-yellow
"
          >
            <div
              class="border border-dial-gray hover:border-transparent card-drop-shadow h-full"
            >
              <div
                class="flex flex-col h-full"
              >
                <div
                  class="flex flex-col p-4 group-hover:text-dial-yellow"
                >
                  <div
                    class="text-2xl font-semibold absolute w-64 2xl:w-80"
                  >
                    D4D Diagnostic Toolkit
                  </div>
                  <div
                    class="mx-auto mt-5 pt-20 w-40 h-60 relative"
                  >
                    <span
                      style="box-sizing: border-box; display: block; overflow: hidden; background: none; opacity: 1; border: 0px; margin: 0px; padding: 0px; position: absolute; top: 0px; left: 0px; bottom: 0px; right: 0px;"
                    >
                      <img
                        alt="Logo for: D4D Diagnostic Toolkit"
                        data-nimg="fill"
                        decoding="async"
                        src="data:image/gif;base64,R0lGODlhAQABAIAAAAAAAP///yH5BAEAAAAALAAAAAABAAEAAAIBRAA7"
                        style="position: absolute; top: 0px; left: 0px; bottom: 0px; right: 0px; box-sizing: border-box; padding: 0px; margin: auto; display: block; width: 0px; height: 0px; min-width: 100%; max-width: 100%; min-height: 100%; max-height: 100%; object-fit: contain;"
                      />
                      <noscript />
                    </span>
                  </div>
                </div>
                <div
                  class="bg-dial-gray-light flex flex-col h-full"
                >
                  <div
                    class="px-3 py-3 text-sm"
                  >
                    <div
                      class="max-h-16 playbook-description overflow-hidden"
                    >
                      D4D Diagnostic Toolkit
                    </div>
                  </div>
                  <div
                    class="flex flex-col bg-dial-gray-light px-3 py-3 text-sm gap-1"
                  >
                    <div
                      class="font-semibold"
                    >
                      Tags
                    </div>
                    <div
                      class="flex flex-row gap-1"
                    >
                      <div
                        class="bg-white px-2 py-1.5 rounded"
                      >
                        SMS services
                      </div>
                      <div
                        class="bg-white px-2 py-1.5 rounded"
                      >
                        Artificial Intelligence
                      </div>
                    </div>
                  </div>
                </div>
              </div>
            </div>
          </div>
          <div
            class="group 
  border-3 cursor-pointer
  border-transparent hover:border-dial-yellow
"
          >
            <div
              class="border border-dial-gray hover:border-transparent card-drop-shadow h-full"
            >
              <div
                class="flex flex-col h-full"
              >
                <div
                  class="flex flex-col p-4 group-hover:text-dial-yellow"
                >
                  <div
                    class="text-2xl font-semibold absolute w-64 2xl:w-80"
                  >
                    Example Playbook
                  </div>
                  <div
                    class="mx-auto mt-5 pt-20 w-40 h-60 relative"
                  >
                    <span
                      style="box-sizing: border-box; display: block; overflow: hidden; background: none; opacity: 1; border: 0px; margin: 0px; padding: 0px; position: absolute; top: 0px; left: 0px; bottom: 0px; right: 0px;"
                    >
                      <img
                        alt="Logo for: Example Playbook"
                        data-nimg="fill"
                        decoding="async"
                        src="data:image/gif;base64,R0lGODlhAQABAIAAAAAAAP///yH5BAEAAAAALAAAAAABAAEAAAIBRAA7"
                        style="position: absolute; top: 0px; left: 0px; bottom: 0px; right: 0px; box-sizing: border-box; padding: 0px; margin: auto; display: block; width: 0px; height: 0px; min-width: 100%; max-width: 100%; min-height: 100%; max-height: 100%; object-fit: contain;"
                      />
                      <noscript />
                    </span>
                  </div>
                </div>
                <div
                  class="bg-dial-gray-light flex flex-col h-full"
                >
                  <div
                    class="px-3 py-3 text-sm"
                  >
                    <div
                      class="max-h-16 playbook-description overflow-hidden"
                    >
                      Just an example of playbook.
                    </div>
                  </div>
                  <div
                    class="flex flex-col bg-dial-gray-light px-3 py-3 text-sm gap-1"
                  >
                    <div
                      class="font-semibold"
                    >
                      Tags
                    </div>
                    <div
                      class="flex flex-row gap-1"
                    >
                      <div
                        class="bg-white px-2 py-1.5 rounded"
                      >
                        3D Printers
                      </div>
                      <div
                        class="bg-white px-2 py-1.5 rounded"
                      >
                        Apps
                      </div>
                    </div>
                  </div>
                </div>
              </div>
            </div>
          </div>
        </div>
      </div>
    </div>
  </div>,
  "debug": [Function],
  "findAllByAltText": [Function],
  "findAllByDisplayValue": [Function],
  "findAllByLabelText": [Function],
  "findAllByPlaceholderText": [Function],
  "findAllByRole": [Function],
  "findAllByTestId": [Function],
  "findAllByText": [Function],
  "findAllByTitle": [Function],
  "findByAltText": [Function],
  "findByDisplayValue": [Function],
  "findByLabelText": [Function],
  "findByPlaceholderText": [Function],
  "findByRole": [Function],
  "findByTestId": [Function],
  "findByText": [Function],
  "findByTitle": [Function],
  "getAllByAltText": [Function],
  "getAllByDisplayValue": [Function],
  "getAllByLabelText": [Function],
  "getAllByPlaceholderText": [Function],
  "getAllByRole": [Function],
  "getAllByTestId": [Function],
  "getAllByText": [Function],
  "getAllByTitle": [Function],
  "getByAltText": [Function],
  "getByDisplayValue": [Function],
  "getByLabelText": [Function],
  "getByPlaceholderText": [Function],
  "getByRole": [Function],
  "getByTestId": [Function],
  "getByText": [Function],
  "getByTitle": [Function],
  "queryAllByAltText": [Function],
  "queryAllByDisplayValue": [Function],
  "queryAllByLabelText": [Function],
  "queryAllByPlaceholderText": [Function],
  "queryAllByRole": [Function],
  "queryAllByTestId": [Function],
  "queryAllByText": [Function],
  "queryAllByTitle": [Function],
  "queryByAltText": [Function],
  "queryByDisplayValue": [Function],
  "queryByLabelText": [Function],
  "queryByPlaceholderText": [Function],
  "queryByRole": [Function],
  "queryByTestId": [Function],
  "queryByText": [Function],
  "queryByTitle": [Function],
  "rerender": [Function],
  "unmount": [Function],
}
`;
