// Jest Snapshot v1, https://goo.gl/fbAQLP

exports[`Unit test for the UseCaseAutocomplete component. Should match snapshot 1`] = `
<div>
  <div
    class="Toastify"
  />
  <div
    class=""
    data-testid="use-case-search"
  >
    <div
      class=" css-l45kjq-container"
    >
      <span
        class="css-1f43avz-a11yText-A11yText"
        id="react-select-2-live-region"
      />
      <span
        aria-atomic="false"
        aria-live="polite"
        aria-relevant="additions text"
        class="css-1f43avz-a11yText-A11yText"
      />
      <div
        class="react-select__control css-19jej77-control"
      >
        <div
          class="react-select__value-container css-3tzzl5-ValueContainer"
        >
          <div
            class="react-select__placeholder css-19jynah-placeholder"
            id="react-select-2-placeholder"
          >
            Filter by Use Case
          </div>
          <div
            class="react-select__input-container css-6j8wv5-Input"
            data-value=""
          >
            <input
              aria-autocomplete="list"
              aria-describedby="react-select-2-placeholder"
              aria-expanded="false"
              aria-haspopup="true"
              aria-label="Filter by Use Case"
              autocapitalize="none"
              autocomplete="off"
              autocorrect="off"
              class="react-select__input"
              id="async-select-id-undefined"
              role="combobox"
              spellcheck="false"
              style="opacity: 1; width: 100%; grid-area: 1 / 2; min-width: 2px; border: 0px; margin: 0px; outline: 0; padding: 0px;"
              tabindex="0"
              type="text"
              value=""
            />
          </div>
        </div>
        <div
          class="react-select__indicators css-1hb7zxy-IndicatorsContainer"
        >
          <span
            class="react-select__indicator-separator css-1979yuk-indicatorSeparator"
          />
          <div
            aria-hidden="true"
            class="react-select__indicator react-select__dropdown-indicator css-1hmmjq6-indicatorContainer"
          >
            <svg
              aria-hidden="true"
              class="css-tj5bde-Svg"
              focusable="false"
              height="20"
              viewBox="0 0 20 20"
              width="20"
            >
              <path
                d="M4.516 7.548c0.436-0.446 1.043-0.481 1.576 0l3.908 3.747 3.908-3.747c0.533-0.481 1.141-0.446 1.574 0 0.436 0.445 0.408 1.197 0 1.615-0.406 0.418-4.695 4.502-4.695 4.502-0.217 0.223-0.502 0.335-0.787 0.335s-0.57-0.112-0.789-0.335c0 0-4.287-4.084-4.695-4.502s-0.436-1.17 0-1.615z"
              />
            </svg>
          </div>
        </div>
      </div>
    </div>
  </div>
</div>
`;

exports[`Unit test for the UseCaseAutocomplete component. Should render a drop down with list. 1`] = `
<div>
  <div
    class="Toastify"
  />
  <div
    class=""
    data-testid="use-case-search"
  >
    <div
      class=" css-l45kjq-container"
    >
      <span
        class="css-1f43avz-a11yText-A11yText"
        id="react-select-3-live-region"
      />
      <span
        aria-atomic="false"
        aria-live="polite"
        aria-relevant="additions text"
        class="css-1f43avz-a11yText-A11yText"
      />
      <div
        class="react-select__control react-select__control--menu-is-open css-19jej77-control"
      >
        <div
          class="react-select__value-container css-3tzzl5-ValueContainer"
        >
          <div
            class="react-select__placeholder css-19jynah-placeholder"
            id="react-select-3-placeholder"
          >
            Filter by Use Case
          </div>
          <div
            class="react-select__input-container css-6j8wv5-Input"
            data-value=""
          >
            <input
              aria-autocomplete="list"
              aria-controls="react-select-3-listbox"
              aria-describedby="react-select-3-placeholder"
              aria-expanded="true"
              aria-haspopup="true"
              aria-label="Filter by Use Case"
              aria-owns="react-select-3-listbox"
              autocapitalize="none"
              autocomplete="off"
              autocorrect="off"
              class="react-select__input"
              id="async-select-id-undefined"
              role="combobox"
              spellcheck="false"
              style="opacity: 1; width: 100%; grid-area: 1 / 2; min-width: 2px; border: 0px; margin: 0px; outline: 0; padding: 0px;"
              tabindex="0"
              type="text"
              value=""
            />
          </div>
        </div>
        <div
          class="react-select__indicators css-1hb7zxy-IndicatorsContainer"
        >
          <span
            class="react-select__indicator-separator css-1979yuk-indicatorSeparator"
          />
          <div
            aria-hidden="true"
            class="react-select__indicator react-select__dropdown-indicator css-1hmmjq6-indicatorContainer"
          >
            <svg
              aria-hidden="true"
              class="css-tj5bde-Svg"
              focusable="false"
              height="20"
              viewBox="0 0 20 20"
              width="20"
            >
              <path
                d="M4.516 7.548c0.436-0.446 1.043-0.481 1.576 0l3.908 3.747 3.908-3.747c0.533-0.481 1.141-0.446 1.574 0 0.436 0.445 0.408 1.197 0 1.615-0.406 0.418-4.695 4.502-4.695 4.502-0.217 0.223-0.502 0.335-0.787 0.335s-0.57-0.112-0.789-0.335c0 0-4.287-4.084-4.695-4.502s-0.436-1.17 0-1.615z"
              />
            </svg>
          </div>
        </div>
      </div>
      <div
        class="react-select__menu css-1jtw5r9-menu"
        id="react-select-3-listbox"
      >
        <div
          class="react-select__menu-list css-4ljt47-MenuList"
        >
          <div
            aria-disabled="false"
            class="react-select__option react-select__option--is-focused css-llk42x-option"
            id="react-select-3-option-0"
            tabindex="-1"
          >
            UseCase 1
          </div>
          <div
            aria-disabled="false"
            class="react-select__option css-19r0ri3-option"
            id="react-select-3-option-1"
            tabindex="-1"
          >
            UseCase 2
          </div>
        </div>
      </div>
    </div>
  </div>
</div>
`;
