// Jest Snapshot v1, https://goo.gl/fbAQLP

exports[`Unit test for the ProductDetailOrganizations component. Should render pricing data structure for commercial product. 1`] = `
{
  "asFragment": [Function],
  "baseElement": <body>
    <div>
      <div
        class="Toastify"
      />
      <div
        class="mt-12"
        data-testid="editable-section"
      >
        <div
          class="flex justify-between items-center mb-3"
        >
          <div
            class="card-title text-dial-gray-dark"
          >
            Pricing Information
          </div>
          <div
            class="gap-3"
          />
        </div>
        <div
          class="flex flex-wrap gap-2 text-sm"
        >
          <div
            class="w-full lg:w-1/2 flex gap-2"
          >
            <div
              class="font-medium"
            >
              Hosting Model
              :
            </div>
            <div
              class="font-semibold inline"
            >
              CLOUD
            </div>
          </div>
          <div
            class="flex gap-2"
          >
            <div
              class="font-medium"
            >
              Pricing Model
              :
            </div>
            <div
              class="font-semibold inline"
            >
              SUBSCRIPTION
            </div>
          </div>
          <div
            class="w-full flex flex-col gap-2"
          >
            <div
              class="font-medium"
            >
              Detail Pricing Information
              :
            </div>
            <div
              class="inline"
            >
              Detail info on pricing.
            </div>
          </div>
        </div>
      </div>
    </div>
  </body>,
  "container": <div>
    <div
      class="Toastify"
    />
    <div
      class="mt-12"
      data-testid="editable-section"
    >
      <div
        class="flex justify-between items-center mb-3"
      >
        <div
          class="card-title text-dial-gray-dark"
        >
          Pricing Information
        </div>
        <div
          class="gap-3"
        />
      </div>
      <div
        class="flex flex-wrap gap-2 text-sm"
      >
        <div
          class="w-full lg:w-1/2 flex gap-2"
        >
          <div
            class="font-medium"
          >
            Hosting Model
            :
          </div>
          <div
            class="font-semibold inline"
          >
            CLOUD
          </div>
        </div>
        <div
          class="flex gap-2"
        >
          <div
            class="font-medium"
          >
            Pricing Model
            :
          </div>
          <div
            class="font-semibold inline"
          >
            SUBSCRIPTION
          </div>
        </div>
        <div
          class="w-full flex flex-col gap-2"
        >
          <div
            class="font-medium"
          >
            Detail Pricing Information
            :
          </div>
          <div
            class="inline"
          >
            Detail info on pricing.
          </div>
        </div>
      </div>
    </div>
  </div>,
  "debug": [Function],
  "findAllByAltText": [Function],
  "findAllByDisplayValue": [Function],
  "findAllByLabelText": [Function],
  "findAllByPlaceholderText": [Function],
  "findAllByRole": [Function],
  "findAllByTestId": [Function],
  "findAllByText": [Function],
  "findAllByTitle": [Function],
  "findByAltText": [Function],
  "findByDisplayValue": [Function],
  "findByLabelText": [Function],
  "findByPlaceholderText": [Function],
  "findByRole": [Function],
  "findByTestId": [Function],
  "findByText": [Function],
  "findByTitle": [Function],
  "getAllByAltText": [Function],
  "getAllByDisplayValue": [Function],
  "getAllByLabelText": [Function],
  "getAllByPlaceholderText": [Function],
  "getAllByRole": [Function],
  "getAllByTestId": [Function],
  "getAllByText": [Function],
  "getAllByTitle": [Function],
  "getByAltText": [Function],
  "getByDisplayValue": [Function],
  "getByLabelText": [Function],
  "getByPlaceholderText": [Function],
  "getByRole": [Function],
  "getByTestId": [Function],
  "getByText": [Function],
  "getByTitle": [Function],
  "queryAllByAltText": [Function],
  "queryAllByDisplayValue": [Function],
  "queryAllByLabelText": [Function],
  "queryAllByPlaceholderText": [Function],
  "queryAllByRole": [Function],
  "queryAllByTestId": [Function],
  "queryAllByText": [Function],
  "queryAllByTitle": [Function],
  "queryByAltText": [Function],
  "queryByDisplayValue": [Function],
  "queryByLabelText": [Function],
  "queryByPlaceholderText": [Function],
  "queryByRole": [Function],
  "queryByTestId": [Function],
  "queryByText": [Function],
  "queryByTitle": [Function],
  "rerender": [Function],
  "unmount": [Function],
}
`;
